test/test_rca1/test02/transcript
# vsim -L ../../../bin -do util/simulate-do -c -lic_plus -quiet -novopt sample_rca_testbench 
# Refreshing /afs/glue.umd.edu/home/glue/a/n/ananya/home/enpm674_user/Project2/project2-part1/bitbucket/test/test_rca1/test02/work.sample_rca_testbench
# do util/simulate-do 
# hello full_adder
# 
# hello nor
# 
# hello nor
# 
# hello nor
# 
# hello nor
# 
# hello nor
# 
# hello nor
# 
# hello nor
# 
# hello nor
# 
# hello nor
# 
# hello nor
# 
# hello nor
# 
# hello nor
# 
# hello nor
# 
# hello nor
# 
# hello nor
# 
# hello nor
# 
# hello nor
# 
# hello nor
# 
# hello full_adder
# 
# hello nor
# 
# hello nor
# 
# hello nor
# 
# hello nor
# 
# hello nor
# 
# hello nor
# 
# hello nor
# 
# hello nor
# 
# hello nor
# 
# hello nor
# 
# hello nor
# 
# hello nor
# 
# hello nor
# 
# hello nor
# 
# hello nor
# 
# hello nor
# 
# hello nor
# 
# hello nor
# 
# hello full_adder
# 
# hello nor
# 
# hello nor
# 
# hello nor
# 
# hello nor
# 
# hello nor
# 
# hello nor
# 
# hello nor
# 
# hello nor
# 
# hello nor
# 
# hello nor
# 
# hello nor
# 
# hello nor
# 
# hello nor
# 
# hello nor
# 
# hello nor
# 
# hello nor
# 
# hello nor
# 
# hello nor
# 
# hello full_adder
# 
# hello nor
# 
# hello nor
# 
# hello nor
# 
# hello nor
# 
# hello nor
# 
# hello nor
# 
# hello nor
# 
# hello nor
# 
# hello nor
# 
# hello nor
# 
# hello nor
# 
# hello nor
# 
# hello nor
# 
# hello nor
# 
# hello nor
# 
# hello nor
# 
# hello nor
# 
# hello nor
# 
# hello full_adder
# 
# hello nor
# 
# hello nor
# 
# hello nor
# 
# hello nor
# 
# hello nor
# 
# hello nor
# 
# hello nor
# 
# hello nor
# 
# hello nor
# 
# hello nor
# 
# hello nor
# 
# hello nor
# 
# hello nor
# 
# hello nor
# 
# hello nor
# 
# hello nor
# 
# hello nor
# 
# hello nor
# 
# hello full_adder
# 
# hello nor
# 
# hello nor
# 
# hello nor
# 
# hello nor
# 
# hello nor
# 
# hello nor
# 
# hello nor
# 
# hello nor
# 
# hello nor
# 
# hello nor
# 
# hello nor
# 
# hello nor
# 
# hello nor
# 
# hello nor
# 
# hello nor
# 
# hello nor
# 
# hello nor
# 
# hello nor
# 
# hello full_adder
# 
# hello nor
# 
# hello nor
# 
# hello nor
# 
# hello nor
# 
# hello nor
# 
# hello nor
# 
# hello nor
# 
# hello nor
# 
# hello nor
# 
# hello nor
# 
# hello nor
# 
# hello nor
# 
# hello nor
# 
# hello nor
# 
# hello nor
# 
# hello nor
# 
# hello nor
# 
# hello nor
# 
# hello full_adder
# 
# hello nor
# 
# hello nor
# 
# hello nor
# 
# hello nor
# 
# hello nor
# 
# hello nor
# 
# hello nor
# 
# hello nor
# 
# hello nor
# 
# hello nor
# 
# hello nor
# 
# hello nor
# 
# hello nor
# 
# hello nor
# 
# hello nor
# 
# hello nor
# 
# hello nor
# 
# hello nor
# 
# hello full_adder
# 
# hello nor
# 
# hello nor
# 
# hello nor
# 
# hello nor
# 
# hello nor
# 
# hello nor
# 
# hello nor
# 
# hello nor
# 
# hello nor
# 
# hello nor
# 
# hello nor
# 
# hello nor
# 
# hello nor
# 
# hello nor
# 
# hello nor
# 
# hello nor
# 
# hello nor
# 
# hello nor
# 
# hello full_adder
# 
# hello nor
# 
# hello nor
# 
# hello nor
# 
# hello nor
# 
# hello nor
# 
# hello nor
# 
# hello nor
# 
# hello nor
# 
# hello nor
# 
# hello nor
# 
# hello nor
# 
# hello nor
# 
# hello nor
# 
# hello nor
# 
# hello nor
# 
# hello nor
# 
# hello nor
# 
# hello nor
# 
# hello full_adder
# 
# hello nor
# 
# hello nor
# 
# hello nor
# 
# hello nor
# 
# hello nor
# 
# hello nor
# 
# hello nor
# 
# hello nor
# 
# hello nor
# 
# hello nor
# 
# hello nor
# 
# hello nor
# 
# hello nor
# 
# hello nor
# 
# hello nor
# 
# hello nor
# 
# hello nor
# 
# hello nor
# 
# hello full_adder
# 
# hello nor
# 
# hello nor
# 
# hello nor
# 
# hello nor
# 
# hello nor
# 
# hello nor
# 
# hello nor
# 
# hello nor
# 
# hello nor
# 
# hello nor
# 
# hello nor
# 
# hello nor
# 
# hello nor
# 
# hello nor
# 
# hello nor
# 
# hello nor
# 
# hello nor
# 
# hello nor
# 
# hello full_adder
# 
# hello nor
# 
# hello nor
# 
# hello nor
# 
# hello nor
# 
# hello nor
# 
# hello nor
# 
# hello nor
# 
# hello nor
# 
# hello nor
# 
# hello nor
# 
# hello nor
# 
# hello nor
# 
# hello nor
# 
# hello nor
# 
# hello nor
# 
# hello nor
# 
# hello nor
# 
# hello nor
# 
# hello full_adder
# 
# hello nor
# 
# hello nor
# 
# hello nor
# 
# hello nor
# 
# hello nor
# 
# hello nor
# 
# hello nor
# 
# hello nor
# 
# hello nor
# 
# hello nor
# 
# hello nor
# 
# hello nor
# 
# hello nor
# 
# hello nor
# 
# hello nor
# 
# hello nor
# 
# hello nor
# 
# hello nor
# 
# hello full_adder
# 
# hello nor
# 
# hello nor
# 
# hello nor
# 
# hello nor
# 
# hello nor
# 
# hello nor
# 
# hello nor
# 
# hello nor
# 
# hello nor
# 
# hello nor
# 
# hello nor
# 
# hello nor
# 
# hello nor
# 
# hello nor
# 
# hello nor
# 
# hello nor
# 
# hello nor
# 
# hello nor
# 
# hello full_adder
# 
# hello nor
# 
# hello nor
# 
# hello nor
# 
# hello nor
# 
# hello nor
# 
# hello nor
# 
# hello nor
# 
# hello nor
# 
# hello nor
# 
# hello nor
# 
# hello nor
# 
# hello nor
# 
# hello nor
# 
# hello nor
# 
# hello nor
# 
# hello nor
# 
# hello nor
# 
# hello nor
# 
# 0 - a:     0, b:     0, carry_in: 0, sum:     x, carry_out: x
# 8 - a:     0, b:     0, carry_in: 0, sum:     X, carry_out: x
# 12 - a:     0, b:     0, carry_in: 0, sum:     X, carry_out: 0
# 16 - a:     0, b:     0, carry_in: 0, sum:     0, carry_out: 0
# 150 - a:     1, b:     1, carry_in: 1, sum:     0, carry_out: 0
# 154 - a:     1, b:     1, carry_in: 1, sum:     1, carry_out: 0
# 160 - a:     1, b:     1, carry_in: 1, sum:     0, carry_out: 0
# 162 - a:     1, b:     1, carry_in: 1, sum:     3, carry_out: 0
# 300 - a: 65535, b:     1, carry_in: 0, sum:     3, carry_out: 0
# 304 - a: 65535, b:     1, carry_in: 0, sum:     2, carry_out: 0
# 308 - a: 65535, b:     1, carry_in: 0, sum: 65534, carry_out: 0
# 310 - a: 65535, b:     1, carry_in: 0, sum: 65532, carry_out: 0
# 318 - a: 65535, b:     1, carry_in: 0, sum: 65528, carry_out: 0
# 326 - a: 65535, b:     1, carry_in: 0, sum: 65520, carry_out: 0
# 334 - a: 65535, b:     1, carry_in: 0, sum: 65504, carry_out: 0
# 342 - a: 65535, b:     1, carry_in: 0, sum: 65472, carry_out: 0
# 350 - a: 65535, b:     1, carry_in: 0, sum: 65408, carry_out: 0
# 358 - a: 65535, b:     1, carry_in: 0, sum: 65280, carry_out: 0
# 366 - a: 65535, b:     1, carry_in: 0, sum: 65024, carry_out: 0
# 374 - a: 65535, b:     1, carry_in: 0, sum: 64512, carry_out: 0
# 382 - a: 65535, b:     1, carry_in: 0, sum: 63488, carry_out: 0
# 390 - a: 65535, b:     1, carry_in: 0, sum: 61440, carry_out: 0
# 398 - a: 65535, b:     1, carry_in: 0, sum: 57344, carry_out: 0
# 406 - a: 65535, b:     1, carry_in: 0, sum: 49152, carry_out: 0
# 414 - a: 65535, b:     1, carry_in: 0, sum: 32768, carry_out: 0
# 422 - a: 65535, b:     1, carry_in: 0, sum:     0, carry_out: 0
# 424 - a: 65535, b:     1, carry_in: 0, sum:     0, carry_out: 1
# 450 - a: 49151, b: 65535, carry_in: 0, sum:     0, carry_out: 1
# 462 - a: 49151, b: 65535, carry_in: 0, sum: 49150, carry_out: 1
# 600 - a: 65535, b: 65535, carry_in: 0, sum: 49150, carry_out: 1
# 612 - a: 65535, b: 65535, carry_in: 0, sum: 65534, carry_out: 1
0, sum: 65534, carry_out: 1
